{
    "_id": "5e02154e14569703bf43e54e",
    "tags": [
        "avionic"
    ],
    "icon": "icons/en/countermeasures.ff5f23593d0850514dd7b63c3a16d8c9.png",
    "thumb": "icons/en/thumbs/countermeasures.ff5f23593d0850514dd7b63c3a16d8c9.128x128.png",
    "icon_format": "port",
    "url_name": "countermeasures",
    "tradable": true,
    "en": {
        "item_name": "Countermeasures",
        "description": "A Battle Avionics that deploys flares that will distract enemy guided projectiles.",
        "wiki_link": "https://warframe.fandom.com/wiki/Avionics#Countermeasures",
        "drop": [
            {
                "name": "Elite Kosma Cutter",
                "link": null
            }
        ]
    },
    "ru": {
        "item_name": "Countermeasures",
        "description": "A Battle Avionics that deploys flares that will distract enemy guided projectiles.",
        "wiki_link": "https://warframe.fandom.com/wiki/Avionics#Countermeasures",
        "drop": [
            {
                "name": "Elite Kosma Cutter",
                "link": null
            }
        ]
    },
    "ko": {
        "item_name": "Countermeasures",
        "description": "A Battle Avionics that deploys flares that will distract enemy guided projectiles.",
        "wiki_link": "https://warframe.fandom.com/wiki/Avionics#Countermeasures",
        "drop": [
            {
                "name": "Elite Kosma Cutter",
                "link": null
            }
        ]
    },
    "mod_max_rank": 4
}