{
    "_id": "5e02154e14569703bf43e54d",
    "tags": [
        "avionic"
    ],
    "icon": "icons/en/fiery_phoenix.ff5f23593d0850514dd7b63c3a16d8c9.png",
    "thumb": "icons/en/thumbs/fiery_phoenix.ff5f23593d0850514dd7b63c3a16d8c9.128x128.png",
    "icon_format": "port",
    "url_name": "fiery_phoenix",
    "tradable": true,
    "en": {
        "item_name": "Fiery Phoenix",
        "description": "A Battle Avionics that leave a trail that deals continuous  Heat damage to enemies touching it. Fiery Phoenix accumulates damage every second while active and will unleash it upon deactivation, damaging all enemies in range. The Railjack will also gain a speed boost and damage reduction while active. Flux Energy Cost: 50 Flux on use. 5 per second while active",
        "wiki_link": "https://warframe.fandom.com/wiki/Avionics#Fiery_Phoenix",
        "drop": [
            {
                "name": "Exo Outrider",
                "link": null
            }
        ]
    },
    "ru": {
        "item_name": "Fiery Phoenix",
        "description": "A Battle Avionics that leave a trail that deals continuous  Heat damage to enemies touching it. Fiery Phoenix accumulates damage every second while active and will unleash it upon deactivation, damaging all enemies in range. The Railjack will also gain a speed boost and damage reduction while active. Flux Energy Cost: 50 Flux on use. 5 per second while active",
        "wiki_link": "https://warframe.fandom.com/wiki/Avionics#Fiery_Phoenix",
        "drop": [
            {
                "name": "Exo Outrider",
                "link": null
            }
        ]
    },
    "ko": {
        "item_name": "Fiery Phoenix",
        "description": "A Battle Avionics that leave a trail that deals continuous  Heat damage to enemies touching it. Fiery Phoenix accumulates damage every second while active and will unleash it upon deactivation, damaging all enemies in range. The Railjack will also gain a speed boost and damage reduction while active. Flux Energy Cost: 50 Flux on use. 5 per second while active",
        "wiki_link": "https://warframe.fandom.com/wiki/Avionics#Fiery_Phoenix",
        "drop": [
            {
                "name": "Exo Outrider",
                "link": null
            }
        ]
    },
    "mod_max_rank": 4
}