{
    "_id": "5dff6e1014569703166749ec",
    "tags": [
        "avionic"
    ],
    "icon": "icons/en/winged_storm_(zetki).ff5f23593d0850514dd7b63c3a16d8c9.png",
    "thumb": "icons/en/thumbs/winged_storm_(zetki).ff5f23593d0850514dd7b63c3a16d8c9.128x128.png",
    "icon_format": "port",
    "url_name": "winged_storm_(zetki)",
    "tradable": true,
    "en": {
        "item_name": "Winged Storm (Zetki)",
        "description": "A Integrated Avionics that increases damage of nearby Archwings",
        "wiki_link": "https://warframe.fandom.com/wiki/Avionics#Winged_Storm",
        "drop": [
            {
                "name": "Cannon Battery",
                "link": null
            },
            {
                "name": "Kosma Taktis",
                "link": null
            },
            {
                "name": "Elite Kosma Flak",
                "link": null
            },
            {
                "name": "Elite Gyre Taktis",
                "link": null
            }
        ]
    },
    "ru": {
        "item_name": "Winged Storm (Zetki)",
        "description": "A Integrated Avionics that increases damage of nearby Archwings",
        "wiki_link": "https://warframe.fandom.com/wiki/Avionics#Winged_Storm",
        "drop": [
            {
                "name": "Cannon Battery",
                "link": null
            },
            {
                "name": "Kosma Taktis",
                "link": null
            },
            {
                "name": "Elite Kosma Flak",
                "link": null
            },
            {
                "name": "Elite Gyre Taktis",
                "link": null
            }
        ]
    },
    "ko": {
        "item_name": "Winged Storm (Zetki)",
        "description": "A Integrated Avionics that increases damage of nearby Archwings",
        "wiki_link": "https://warframe.fandom.com/wiki/Avionics#Winged_Storm",
        "drop": [
            {
                "name": "Cannon Battery",
                "link": null
            },
            {
                "name": "Kosma Taktis",
                "link": null
            },
            {
                "name": "Elite Kosma Flak",
                "link": null
            },
            {
                "name": "Elite Gyre Taktis",
                "link": null
            }
        ]
    },
    "mod_max_rank": 7
}