{
    "_id": "5dff6e111456970316674a0a",
    "tags": [
        "avionic"
    ],
    "icon": "icons/en/winged_steel_(zetki).ff5f23593d0850514dd7b63c3a16d8c9.png",
    "thumb": "icons/en/thumbs/winged_steel_(zetki).ff5f23593d0850514dd7b63c3a16d8c9.128x128.png",
    "icon_format": "port",
    "url_name": "winged_steel_(zetki)",
    "tradable": true,
    "en": {
        "item_name": "Winged Steel (Zetki)",
        "description": "A Integrated Avionics that increases armor of nearby Archwings",
        "wiki_link": "https://warframe.fandom.com/wiki/Avionics#Winged_Steel",
        "drop": [
            {
                "name": "Exo Taktis",
                "link": null
            },
            {
                "name": "Exo Cutter",
                "link": null
            },
            {
                "name": "Elite Exo Cutter",
                "link": null
            },
            {
                "name": "Gyre Flak",
                "link": null
            }
        ]
    },
    "ru": {
        "item_name": "Winged Steel (Zetki)",
        "description": "A Integrated Avionics that increases armor of nearby Archwings",
        "wiki_link": "https://warframe.fandom.com/wiki/Avionics#Winged_Steel",
        "drop": [
            {
                "name": "Exo Taktis",
                "link": null
            },
            {
                "name": "Exo Cutter",
                "link": null
            },
            {
                "name": "Elite Exo Cutter",
                "link": null
            },
            {
                "name": "Gyre Flak",
                "link": null
            }
        ]
    },
    "ko": {
        "item_name": "Winged Steel (Zetki)",
        "description": "A Integrated Avionics that increases armor of nearby Archwings",
        "wiki_link": "https://warframe.fandom.com/wiki/Avionics#Winged_Steel",
        "drop": [
            {
                "name": "Exo Taktis",
                "link": null
            },
            {
                "name": "Exo Cutter",
                "link": null
            },
            {
                "name": "Elite Exo Cutter",
                "link": null
            },
            {
                "name": "Gyre Flak",
                "link": null
            }
        ]
    },
    "mod_max_rank": 4
}