{
    "_id": "5e6248fc7d76f2c26d1b7c6d",
    "url_name": "fear_of_space_travel",
    "en": {
        "item_name": "Fear of Space Travel",
        "description": "Upon spawning on a ship, sometimes stands frightened and does not attack first"
    },
    "ru": {
        "item_name": "Fear of Space Travel",
        "description": "Upon spawning on a ship, sometimes stands frightened and does not attack first"
    },
    "ko": {
        "item_name": "Fear of Space Travel",
        "description": "Upon spawning on a ship, sometimes stands frightened and does not attack firsts"
    }
}