{
    "_id": "5e62400b7d76f2651c72c913",
    "url_name": "vengeful_chill",
    "icon": "icons/en/vengeful_chill.357327ef4c8de2efee1873926aeb47aa.png",
    "thumb": "icons/en/thumbs/vengeful_chill.357327ef4c8de2efee1873926aeb47aa.128x128.png",
    "icon_format": "land",
    "animation": "animations/vengeful_chill.01a762baf827ac54059c00b3665a549f.gif",
    "animation_format": "land",
    "element": "cold",
    "en": {
        "item_name": "Vengeful Chill",
        "wiki_link": "https://warframe.fandom.com/wiki/Kuva_Lich#Ephemera"
    },
    "ru": {
        "item_name": "Vengeful Chill",
        "wiki_link": "https://warframe.fandom.com/wiki/Kuva_Lich#Ephemera"
    },
    "ko": {
        "item_name": "Vengeful Chill",
        "wiki_link": "https://warframe.fandom.com/wiki/Kuva_Lich#Ephemera"
    }
}