{
    "_id": "5e6243177d76f28630fbdf2b",
    "url_name": "kuva_twin_stubbas",
    "icon": "icons/en/kuva_twin_stubbas.2b7e09ca3fbf0647c8f9b170dba34546.png",
    "thumb": "icons/en/thumbs/kuva_twin_stubbas.2b7e09ca3fbf0647c8f9b170dba34546.128x128.png",
    "icon_format": "land",
    "en": {
        "item_name": "Kuva Twin Stubbas",
        "wiki_link": "https://warframe.fandom.com/wiki/Kuva_Twin_Stubbas"
    },
    "ru": {
        "item_name": "Парные Стаббы Кува",
        "wiki_link": "https://warframe.fandom.com/ru/wiki/%D0%9F%D0%B0%D1%80%D0%BD%D1%8B%D0%B5_%D0%A1%D1%82%D0%B0%D0%B1%D0%B1%D1%8B_%D0%9A%D1%83%D0%B2%D0%B0"
    },
    "ko": {
        "item_name": "Kuva Twin Stubbas",
        "wiki_link": "https://warframe.fandom.com/wiki/Kuva_Twin_Stubbas"
    }
}