{
    "_id": "5e6243187d76f28630fbdf2d",
    "url_name": "kuva_tonkor",
    "icon": "icons/en/kuva_tonkor.bba3f83b859708221b5c374429d1d540.png",
    "thumb": "icons/en/thumbs/kuva_tonkor.bba3f83b859708221b5c374429d1d540.128x128.png",
    "icon_format": "land",
    "en": {
        "item_name": "Kuva Tonkor",
        "wiki_link": "https://warframe.fandom.com/wiki/Kuva_Tonkor"
    },
    "ru": {
        "item_name": "Тонкор Кува",
        "wiki_link": "https://warframe.fandom.com/ru/wiki/%D0%A2%D0%BE%D0%BD%D0%BA%D0%BE%D1%80_%D0%9A%D1%83%D0%B2%D0%B0"
    },
    "ko": {
        "item_name": "Kuva Tonkor",
        "wiki_link": "https://warframe.fandom.com/wiki/Kuva_Tonkor"
    }
}